{
  "endRow": 11,
		"firstPage": 1,
		"hasNextPage": true,
		"hasPreviousPage": false,
		"isFirstPage": true,
		"isLastPage": false,
		"lastPage": 5,
		"list": [{
			"applyNo": "SZS0720190225001",
			"applyStatus": "applycheckinterview",
			"appointAddress": "的",
			"appointTime": 1551236280000,
			"isRobRed": "1",
			"matterKey": "Interview",
			"matterName": "面签",
			"productId": "IMFB_YSL_YJY_ISR",
			"productName": "买付保（有赎楼）",
			"relateFlag": "0",
			"relateType": "",
			"salesUserId": "70000000060556",
			"salesUserName": "孙思楠",
			"sellerName": "的"
		}, {
			"applyNo": "SZC0120190222001",
			"applyStatus": "applycheckinterview",
			"appointAddress": "231231",
			"appointTime": 1551066420000,
			"isRobRed": "0",
			"matterKey": "Interview",
			"matterName": "面签",
			"productId": "SLY_YSL_YJY_CSH",
			"productName": "及时贷（交易赎楼）",
			"relateFlag": "1",
			"relateType": "PTGL",
			"salesUserId": "70000000060556",
			"salesUserName": "孙思楠",
			"sellerName": "秋涛"
		}, {
			"applyNo": "SZC0120190118001",
			"applyStatus": "transferin",
			"appointAddress": "",
			"appointTime": 1550799480000,
			"isRobRed": "1",
			"matterKey": "TransferOut",
			"matterName": "过户出件",
			"productId": "SLY_YSL_YJY_CSH",
			"productName": "及时贷（交易赎楼）",
			"relateFlag": "0",
			"relateType": "",
			"salesUserId": "70000000060556",
			"salesUserName": "孙思楠",
			"sellerName": "陈富宁"
		}, {
			"applyNo": "SZS0420190219001",
			"applyStatus": "applycheckinterview",
			"appointAddress": "大冲",
			"appointTime": 1550737650000,
			"isRobRed": "1",
			"matterKey": "Interview",
			"productId": "TFB_NSL_NJY_ISR",
			"productName": "提放保（无赎楼）",
			"relateFlag": "0",
			"relateType": "",
			"salesUserId": "70000000060556",
			"salesUserName": "孙思楠",
			"sellerName": "天气"
		}, {
			"applyNo": "SZS0820190219001",
			"applyStatus": "applycheckinterview",
			"appointAddress": "Test Appointment Address.",
			"appointTime": 1550680591000,
			"isRobRed": "1",
			"matterKey": "Interview",
			"matterName": "面签",
			"productId": "IMFB_NSL_YJY_ISR",
			"productName": "买付保（无赎楼）",
			"relateFlag": "0",
			"relateType": "",
			"salesUserId": "70000000060556",
			"salesUserName": "孙思楠",
			"sellerName": "施志强"
		}, {
			"applyNo": "SZC0220190211001",
			"applyStatus": "mortgagePass",
			"appointAddress": "",
			"appointTime": 1550546880000,
			"isRobRed": "1",
			"matterKey": "MortgageOut",
			"matterName": "抵押出件",
			"productId": "SLY_YSL_NJY_CSH",
			"productName": "及时贷（非交易赎楼）",
			"relateFlag": "0",
			"relateType": "",
			"salesUserId": "10000022973248",
			"salesUserName": "贺梦娜",
			"sellerName": "邹富珂,邹贯邹贯邹贯平,胡党梅"
		}, {
			"applyNo": "SZC0220190215001",
			"applyStatus": "passedinterview",
			"appointAddress": "兴业",
			"appointTime": 1550540688000,
			"isRobRed": "1",
			"matterKey": "Interview",
			"matterName": "面签",
			"productId": "SLY_YSL_NJY_CSH",
			"productName": "及时贷（非交易赎楼）",
			"relateFlag": "0",
			"relateType": "",
			"salesUserId": "70000000060556",
			"salesUserName": "孙思楠",
			"sellerName": "舒富谊"
		}, {
			"applyNo": "SZC0220190116005",
			"applyStatus": "passedinterviewed",
			"appointAddress": "",
			"appointTime": 1550485080000,
			"isRobRed": "1",
			"matterKey": "TrustAccount",
			"matterName": "要件托管",
			"productId": "SLY_YSL_NJY_CSH",
			"productName": "及时贷（非交易赎楼）",
			"relateFlag": "0",
			"relateType": "",
			"salesUserId": "10000025693798",
			"salesUserName": "杨风格",
			"sellerName": "颜富东"
		}, {
			"applyNo": "SZC0220190116004",
			"applyStatus": "inputedinfo",
			"appointAddress": "",
			"appointTime": 1550476320000,
			"isRobRed": "1",
			"matterKey": "AccountTest",
			"matterName": "账户测试",
			"productId": "SLY_YSL_NJY_CSH",
			"productName": "及时贷（非交易赎楼）",
			"relateFlag": "0",
			"relateType": "",
			"salesUserId": "20000012788267",
			"salesUserName": "方杰明",
			"sellerName": "刘富昌,徐雪徐雪徐雪云,刘俊"
		}, {
			"applyNo": "SZC0220190214001",
			"applyStatus": "inputedinfo",
			"appointAddress": "",
			"appointTime": 1550469120000,
			"isRobRed": "0",
			"matterKey": "AccountTest",
			"matterName": "账户测试",
			"productId": "SLY_YSL_NJY_CSH",
			"productName": "及时贷（非交易赎楼）",
			"relateFlag": "1",
			"relateType": "CPBG",
			"salesUserId": "70000000060663",
			"salesUserName": "林新人",
			"sellerName": "叶富玲"
		}, {
			"applyNo": "SZC0120190121003",
			"applyStatus": "applycheckinterviewed",
			"appointAddress": "",
			"appointTime": 1550467680000,
			"isRobRed": "1",
			"matterKey": "PreRandom",
			"matterName": "预约赎楼",
			"productId": "SLY_YSL_YJY_CSH",
			"productName": "及时贷（交易赎楼）",
			"relateFlag": "0",
			"relateType": "",
			"salesUserId": "70000000060556",
			"salesUserName": "孙思楠",
			"sellerName": "陈富飞"
		}],
		"navigateFirstPage": 1,
		"navigateLastPage": 5,
		"navigatePages": 8,
		"navigatepageNums": [1, 2, 3, 4, 5],
		"nextPage": 2,
		"pageNum": 1,
		"pageSize": 11,
		"pages": 5,
		"prePage": 0,
		"size": 11,
		"startRow": 1,
		"total": 52
}