{
  "endRow": 20,
  "firstPage": 1,
  "hasNextPage": true,
  "hasPreviousPage": false,
  "isFirstPage": true,
  "isLastPage": false,
  "lastPage": 8,
  "list": [
    {
      "applyNo": "ZZS0220180813002",
      "appointAddress": "其他",
      "appointRemark": "国开交易中心",
      "appointTime": 1534144560000,
      "assigneeId": "10000022823218",
      "assigneeName": "李晓林",
      "matterKey": "ApplyLoan",
      "matterName": "申请贷款",
      "productId": "JYB_NSL_YJY_ISR",
      "productName": "交易保（无赎楼）",
      "robUserId": "10000022823218",
      "robUserName": "李晓林",
      "sellerName": "石富,罗凯泉凯泉凯泉"
    },
    {
      "applyNo": "ZZS0120180823001",
      "appointAddress": "公司",
      "appointTime": 1534989060000,
      "assigneeId": "70000000061342",
      "assigneeName": "韩静",
      "matterKey": "ApplyLoan",
      "matterName": "申请贷款",
      "productId": "JYB_YSL_YJY_ISR",
      "productName": "交易保（有赎楼）",
      "robUserId": "70000000061342",
      "robUserName": "韩静",
      "sellerName": "贾富飞"
    },
    {
      "applyNo": "ZZS0120180823001",
      "appointAddress": "其他",
      "appointTime": 1534989060000,
      "assigneeId": "70000000061342",
      "assigneeName": "韩静",
      "matterKey": "Interview",
      "matterName": "面签",
      "productId": "JYB_YSL_YJY_ISR",
      "productName": "交易保（有赎楼）",
      "robUserId": "70000000061342",
      "robUserName": "韩静",
      "sellerName": "贾富飞"
    },
    {
      "applyNo": "ZZS0120180913002",
      "appointAddress": "其他",
      "appointRemark": "大道北部",
      "appointTime": 1536809340000,
      "assigneeId": "70000000061342",
      "assigneeName": "韩静",
      "matterKey": "ApplyLoan",
      "matterName": "申请贷款",
      "productId": "JYB_YSL_YJY_ISR",
      "productName": "交易保（有赎楼）",
      "robUserId": "70000000061342",
      "robUserName": "韩静",
      "sellerName": "张富成"
    },
    {
      "applyNo": "ZZS0420180917019",
      "appointAddress": "其他",
      "appointRemark": "郑州银行",
      "appointTime": 1537173900000,
      "assigneeId": "70000000061152",
      "assigneeName": "张丽静",
      "matterKey": "TrustAccount",
      "matterName": "要件托管",
      "productId": "TFB_NSL_NJY_ISR",
      "productName": "提放保（无赎楼）",
      "robUserId": "70000000061152",
      "robUserName": "张丽静",
      "sellerName": "李富"
    },
    {
      "applyNo": "ZZS0120180928001",
      "appointAddress": "其他",
      "appointRemark": "国开交易中心",
      "appointTime": 1538099580000,
      "assigneeId": "70000000170008",
      "assigneeName": "吴兆凭",
      "matterKey": "ApplyLoan",
      "matterName": "申请贷款",
      "productId": "JYB_YSL_YJY_ISR",
      "productName": "交易保（有赎楼）",
      "robUserId": "70000000170008",
      "robUserName": "吴兆凭",
      "sellerName": "陈富巧"
    },
    {
      "applyNo": "ZZS0220181008009",
      "appointAddress": "其他",
      "appointRemark": "公司",
      "appointTime": 1538991540000,
      "assigneeId": "10000022823218",
      "assigneeName": "李晓林",
      "matterKey": "ApplyLoan",
      "matterName": "申请贷款",
      "productId": "JYB_NSL_YJY_ISR",
      "productName": "交易保（无赎楼）",
      "robUserId": "10000022823218",
      "robUserName": "李晓林",
      "sellerName": "岳富强,郝丽郝丽郝丽"
    },
    {
      "applyNo": "ZZC0120181009003",
      "appointAddress": "其他",
      "appointRemark": "公司",
      "appointTime": 1539067860000,
      "assigneeId": "70000000061206",
      "assigneeName": "李卓",
      "matterKey": "TrustAccount",
      "matterName": "要件托管",
      "productId": "SLY_YSL_YJY_CSH",
      "productName": "及时贷（交易赎楼）",
      "robUserId": "70000000061206",
      "robUserName": "李卓",
      "sellerName": "董富"
    },
    {
      "applyNo": "ZZS0120181015013",
      "appointAddress": "其他",
      "appointRemark": "光大政七街",
      "appointTime": 1539588900000,
      "assigneeId": "70000000061342",
      "assigneeName": "韩静",
      "matterKey": "ApplyLoan",
      "matterName": "申请贷款",
      "productId": "JYB_YSL_YJY_ISR",
      "productName": "交易保（有赎楼）",
      "robUserId": "70000000061342",
      "robUserName": "韩静",
      "sellerName": "王富,谢飞飞飞飞"
    },
    {
      "applyNo": "ZZS0120181018004",
      "appointAddress": "其他",
      "appointRemark": "银行",
      "appointTime": 1539843900000,
      "assigneeId": "70000000170055",
      "assigneeName": "王明立",
      "matterKey": "ApplyLoan",
      "matterName": "申请贷款",
      "productId": "JYB_YSL_YJY_ISR",
      "productName": "交易保（有赎楼）",
      "robUserId": "70000000170055",
      "robUserName": "王明立",
      "sellerName": "张富,张瑞峰瑞峰瑞峰"
    },
    {
      "applyNo": "ZZS0220181024003",
      "appointAddress": "其他",
      "appointRemark": "中原银行金水",
      "appointTime": 1540361100000,
      "assigneeId": "70000000061228",
      "assigneeName": "杨赛",
      "matterKey": "ApplyLoan",
      "matterName": "申请贷款",
      "productId": "JYB_NSL_YJY_ISR",
      "productName": "交易保（无赎楼）",
      "robUserId": "70000000061228",
      "robUserName": "杨赛",
      "sellerName": "杨富伟,郭书郭书郭书焕"
    },
    {
      "applyNo": "ZZS0120181026001",
      "appointAddress": "其他",
      "appointRemark": "公司",
      "appointTime": 1540522680000,
      "assigneeId": "70000000061342",
      "assigneeName": "韩静",
      "matterKey": "PreRandom",
      "matterName": "预约赎楼",
      "productId": "JYB_YSL_YJY_ISR",
      "productName": "交易保（有赎楼）",
      "robUserId": "70000000061342",
      "robUserName": "韩静",
      "sellerName": "何富"
    },
    {
      "applyNo": "ZZS0120181029010",
      "appointAddress": "其他",
      "appointRemark": "金杯事业部",
      "appointTime": 1540796640000,
      "assigneeId": "70000000060984",
      "assigneeName": "葛琳",
      "matterKey": "ApplyLoan",
      "matterName": "申请贷款",
      "productId": "JYB_YSL_YJY_ISR",
      "productName": "交易保（有赎楼）",
      "robUserId": "70000000060984",
      "robUserName": "葛琳",
      "sellerName": "李富捷,李晓李晓李晓婷,李金国,江玉霞"
    },
    {
      "applyNo": "ZZS0220181030003",
      "appointAddress": "其他",
      "appointRemark": "金水路中原银行",
      "appointTime": 1540867020000,
      "assigneeId": "70000000061218",
      "assigneeName": "穆艳勤",
      "matterKey": "ApplyLoan",
      "matterName": "申请贷款",
      "productId": "JYB_NSL_YJY_ISR",
      "productName": "交易保（无赎楼）",
      "robUserId": "70000000061218",
      "robUserName": "穆艳勤",
      "sellerName": "王富花"
    },
    {
      "applyNo": "ZZS0120181101009",
      "appointAddress": "其他",
      "appointRemark": "北区",
      "appointTime": 1541055120000,
      "assigneeId": "70000000060997",
      "assigneeName": "何晨",
      "matterKey": "AgreeLoanMark",
      "matterName": "同贷信息登记",
      "productId": "JYB_YSL_YJY_ISR",
      "productName": "交易保（有赎楼）",
      "robUserId": "70000000060997",
      "robUserName": "何晨",
      "sellerName": "娄富宽,徐雪徐雪徐雪灵"
    },
    {
      "applyNo": "ZZS0120181102003",
      "appointAddress": "银行",
      "appointTime": 1541127300000,
      "assigneeId": "70000000060973",
      "assigneeName": "单义莹",
      "matterKey": "ApplyLoan",
      "matterName": "申请贷款",
      "productId": "JYB_YSL_YJY_ISR",
      "productName": "交易保（有赎楼）",
      "robUserId": "70000000060973",
      "robUserName": "单义莹",
      "sellerName": "吴富蒙,杨文杨文杨文龙"
    },
    {
      "applyNo": "ZZS0120181102003",
      "appointAddress": "其他",
      "appointTime": 1541127300000,
      "assigneeId": "70000000060973",
      "assigneeName": "单义莹",
      "matterKey": "Interview",
      "matterName": "面签",
      "productId": "JYB_YSL_YJY_ISR",
      "productName": "交易保（有赎楼）",
      "robUserId": "70000000060973",
      "robUserName": "单义莹",
      "sellerName": "吴富蒙,杨文杨文杨文龙"
    },
    {
      "applyNo": "ZZS0120181107001",
      "appointAddress": "其他",
      "appointRemark": "银行",
      "appointTime": 1541553960000,
      "assigneeId": "70000000061228",
      "assigneeName": "杨赛",
      "matterKey": "ApplyLoan",
      "matterName": "申请贷款",
      "productId": "JYB_YSL_YJY_ISR",
      "productName": "交易保（有赎楼）",
      "robUserId": "70000000061228",
      "robUserName": "杨赛",
      "sellerName": "郭富娟,马山马山马山岭"
    },
    {
      "applyNo": "ZZS0120181106012",
      "appointAddress": "其他",
      "appointRemark": "中原银行金水路支行",
      "appointTime": 1541554500000,
      "assigneeId": "70000000170008",
      "assigneeName": "吴兆凭",
      "matterKey": "ApplyLoan",
      "matterName": "申请贷款",
      "productId": "JYB_YSL_YJY_ISR",
      "productName": "交易保（有赎楼）",
      "robUserId": "70000000170008",
      "robUserName": "吴兆凭",
      "sellerName": "李富霞,韩贵韩贵韩贵振"
    },
    {
      "applyNo": "ZZS0120181106012",
      "appointAddress": "其他",
      "appointRemark": "中原银行金水路支行",
      "appointTime": 1541554500000,
      "assigneeId": "70000000170008",
      "assigneeName": "吴兆凭",
      "matterKey": "TrustAccount",
      "matterName": "要件托管",
      "productId": "JYB_YSL_YJY_ISR",
      "productName": "交易保（有赎楼）",
      "robUserId": "70000000170008",
      "robUserName": "吴兆凭",
      "sellerName": "李富霞,韩贵韩贵韩贵振"
    }
  ],
  "navigateFirstPage": 1,
  "navigateLastPage": 8,
  "navigatePages": 8,
  "navigatepageNums": [1, 2, 3, 4, 5, 6, 7, 8],
  "nextPage": 2,
  "pageNum": 1,
  "pageSize": 20,
  "pages": 45,
  "prePage": 0,
  "size": 20,
  "startRow": 1,
  "total": 889
}
